﻿{
	"التكبير و التسبيح في سير السفرِ": 
	[
		{
			"ID": 1,
			"Text": "قَالَ جَابِرٌ رضي الله عنه: ((كُنَّا إِذَا صَعَدْنَا كَبَّرْنَا، وَإِذَا نَزَلْنَا سَبَّحْنَا)).", 
  		    "repeat": 1 
 		}
	]
}