﻿{
	"ِما يقول المسلم إذا مدح المسلم": 
	[
		{
			"ID": 1,
			"Text": "قَالَ النَّبِيُّ صلى الله عليه وسلم: ((إِذَا كَانَ أَحَدُكُم مَادِحاً صَاحِبَهُ لاَ مَحَالَةَ فَلْيَقُلْ: أَحْسِبُ فُلاَناً وَاللَّهُ حَسِيبُهُ، وَلاَ أُزَكِّي عَلَى اللَّهِ أَحَداً، أَحْسِبُهُ – إِنْ كَانَ يَعْلَمُ ذَاكَ – كَذَا وَكَذَا)).", 
  		    "repeat": 1 
 		}
	]
}