﻿{
	"ِالدعاء يوم عرفة": 
	[
		{
			"ID": 1,
			"Text": "قَالَ النَّبِيُّ صلى الله عليه وسلم: ((خَيْرُ الدُّعَاءِ دُعَاءُ يَوْمِ عَرَفَةَ، وَخَيْرُ مَا قُلْتُ أَنَا وَالنَّبيُّونَ مِنْ قَبْلِي: لاَ إِلَهَ إِلاَّ اللَّهُ وَحْدَهُ لاَ شَرِيكَ لَهُ، لَهُ الْمُلْكُ وَلَهُ الْحَمْدُ وَهُوَ عَلَى كُلِّ شَيْءٍ قَدِيرٌ)).", 
  		    "repeat": 1 
 		}
	]
}