﻿{
	"دعاء الخروج من المسجدِ": 
	[
		{
			"ID": 1,
			"Text": "((يَبْدَأُ بِرِجْلِهِ الْيُسْرَى))  وَيَقُولُ: ((بِسْمِ اللَّهِ وَالصّلَاةُ وَالسَّلَامُ عَلَى رَسُولِ اللَّهِ، اللَّهُمَّ إِنِّي أَسْأَلُكَ مِنْ فَضْلِك، اللَّهُمَّ اعْصِمْنِي مِنَ الشَّيْطَانِ الرَّجِيمِ)).", 
  		    "repeat": 1 
 		}
	]
}