﻿{
	"الدُّعَاءُ لِمَنْ لَبِسَ ثـَوْباً جَـدِيداً": 
	[
		{
			"ID": 1,
			"Text": "(تُبْلِي وَيُخْلِفُ اللَّهُ تَعَالَى)", 
  		    "repeat": 1 
 		},
		{
			"ID": 2,
			"Text": "(اِلْبَسْ جَدِيداً وَعِشْ حَمِيداً وَمُتْ شَهِيداً).", 
  		    "repeat": 1 
 		}
	]
}