﻿{
	"ِدعاء من استصعب عليه أمر": 
	[
		{
			"ID": 1,
			"Text": "((اللَّهُمَّ لاَ سَهْلَ إِلاَّ مَا جَعَلْتَهُ سَهْلاً، وَأَنْتَ تَجْعَلُ الْحَزْنَ إِذَا شِئْتَ سَهْلاً)).", 
  		    "repeat": 1 
 		}
	]
}