﻿{
	"كفارة اﻟﻤﺠلسِ": 
	[
		{
			"ID": 1,
			"Text": "((سُبْحَانَكَ اللَّهُمَّ وَبِحَمْدِكَ، أَشْهَدُ أَنْ لاَ إِلَهَ إِلاَّ أَنْتَ، أَسْتَغْفِرُكَ وَأَتُوبُ إِلَيْكَ)).", 
  		    "repeat": 1 
 		}
	]
}