﻿{
	"ما يعصم الله به من الدجالِ": 
	[
		{
			"ID": 1,
			"Text": "((مَنْ حَفِظَ عَشْرَ آيَاتٍ مِنْ أَوَّلِ سُورَةِ الْكَهْفِ عُصِمَ مِنَ الدَّجَّالِ)) ، وَالْاسْتِعَاذَةُ بِاللَّهِ مِنْ فِتْنَتِهِ عَقِبَ التَّشَهُّدِ الْأَخِيرِ مِنْ كُلِّ صَلاَةٍ.", 
  		    "repeat": 1 
 		}
	]
}