﻿{
	"الدعاء لمن أقرض عند القضاءِ": 
	[
		{
			"ID": 1,
			"Text": "((بارَكَ اللَّهُ لَكَ فِي أَهْلِكَ وَمَالِكَ، إِنَّمَا جَزَاءُ السَّلَفِ الْحَمْدُ وَالأَدَاءُ)).", 
  		    "repeat": 1 
 		}
	]
}